3 0.2091346153846154 0.4358974358974359 0.036057692307692304 0.10256410256410256
3 0.41586538461538464 0.19658119658119658 0.036057692307692304 0.11965811965811966
3 0.5528846153846154 0.1752136752136752 0.040865384615384616 0.12393162393162394
3 0.7043269230769231 0.16666666666666666 0.04326923076923077 0.1282051282051282
3 0.7836538461538461 0.4358974358974359 0.040865384615384616 0.11965811965811966
3 0.8677884615384616 0.452991452991453 0.02403846153846154 0.09401709401709402