3 0.06009615384615385 0.450920245398773 0.05048076923076923 0.10736196319018405
3 0.3269230769230769 0.20552147239263804 0.04326923076923077 0.0950920245398773
3 0.5144230769230769 0.20552147239263804 0.04326923076923077 0.09202453987730061
3 0.9302884615384616 0.44171779141104295 0.04567307692307692 0.10429447852760736
3 0.9735576923076923 0.4601226993865031 0.021634615384615384 0.03987730061349693