3 0.21394230769230768 0.40336134453781514 0.0673076923076923 0.18907563025210083
3 0.84375 0.4117647058823529 0.07211538461538461 0.23109243697478993
3 0.7115384615384616 0.453781512605042 0.01201923076923077 0.058823529411764705
3 0.8846153846153846 0.4579831932773109 0.01201923076923077 0.037815126050420166